D:\commercial\testautomation\automation\src\test\generated\com\selflearn\xsd\Login.java
D:\commercial\testautomation\automation\src\test\generated\com\selflearn\xsd\PageData.java
D:\commercial\testautomation\automation\src\test\generated\com\selflearn\xsd\package-info.java
D:\commercial\testautomation\automation\src\test\generated\com\selflearn\xsd\SearchType.java
D:\commercial\testautomation\automation\src\test\generated\com\selflearn\xsd\ObjectFactory.java
